[
  {
    "name": "codecentric",
    "url": "https://www.codecentric.de/",
    "logo": "codecentric"
  },
  {
    "name": "codurance",
    "url": "http://www.codurance.com",
    "logo": "codurance"
  },
  {
    "name": "Connexxo",
    "url": "http://www.connexxo.com/",
    "logo": "connexxo"
  },
  {
    "name": "DemandFlow GmbH",
    "url": "http://www.demandflow.de/",
    "logo": "demandflow"
  },
  {
    "name": "DATEV eG",
    "url": "http://www.datev.de",
    "logo": "datev"
  },
  {
    "name": "Etermax",
    "url": "http://www.etermax.com/",
    "logo": "etermax"
  },
  {
    "name": "HolidayCheck",
    "url": "http://holidaycheck.de/",
    "logo": "holidayCheck"
  },
  {
    "name": "Huf Hülsbeck & Fürst GmbH & Co. KG",
    "url": "http://www.huf-sixsense.com/",
    "logo": "huf"
  },
  {
    "name": "innoQ",
    "url": "https://www.innoq.com/",
    "logo": "innoq"
  },
  {
    "name": "Instana",
    "url": "http://www.instana.com/",
    "logo": "instana"
  },
  {
    "name": "ISO Software Systeme GmbH",
    "url": "http://www.iso-gruppe.com",
    "logo": "iso"
  },
  {
    "name": "it-agile GmbH",
    "url": "http://www.it-agile.de",
    "logo": "itagile"
  },
  {
    "name": "klose brothers gmbh",
    "url": "http://www.klosebrothers.de",
    "logo": "kloseBrothers"
  },
  {
    "name": "leanovate GmbH",
    "url": "http://www.leanovate.de",
    "logo": "leanovate"
  },
  {
    "name": "MaibornWolff",
    "url": "http://www.maibornwolff.de",
    "logo": "maibornWolff"
  },
  {
    "name": "Mercateo",
    "url": "http://www.mercateo.com",
    "logo": "mercateo"
  },
  {
    "name": "Method Park Holding AG",
    "url": "http://www.methodpark.de",
    "logo": "methodpark"
  },
  {
    "name": "Mozaic Works",
    "url": "http://www.mozaicworks.com",
    "logo": "mozaic_works"
  },
  {
    "name": "NovaTec",
    "url": "http://www.novatec-gmbh.de/",
    "logo": "novatec"
  },
  {
    "name": "oose. Innovative Informatik eG",
    "url": "http://www.oose.de",
    "logo": "oose"
  },
  {
    "name": "REWE Digital GmbH",
    "url": "https://www.rewe-digital.com",
    "logo": "rewedigital"
  },
  {
    "name": "TNG Technology Consulting GmbH",
    "url": "https://tngtech.com",
    "logo": "tng"
  }
]
